<svg
    class="mdc-select__dropdown-icon-graphic"
    viewBox="7 10 10 5" focusable="false">
    <polygon
            class="mdc-select__dropdown-icon-inactive"
            stroke="none"
            fill-rule="evenodd"
            points="7 10 12 15 17 10">
    </polygon>
    <polygon
            class="mdc-select__dropdown-icon-active"
            stroke="none"
            fill-rule="evenodd"
            points="7 15 12 10 17 15">
    </polygon>
</svg>